module github.com/ranggaadi/ubtool

go 1.14

require (
	github.com/PuerkitoBio/goquery v1.5.1 // indirect
	github.com/andybalholm/cascadia v1.2.0 // indirect
	github.com/antchfx/htmlquery v1.2.3 // indirect
	github.com/antchfx/xmlquery v1.2.4 // indirect
	github.com/antchfx/xpath v1.1.8 // indirect
	github.com/briandowns/spinner v1.11.1
	github.com/fsnotify/fsnotify v1.4.9 // indirect
	github.com/gobwas/glob v0.2.3 // indirect
	github.com/gocolly/colly v1.2.0
	github.com/golang/protobuf v1.4.2 // indirect
	github.com/joho/godotenv v1.3.0
	github.com/kennygrant/sanitize v1.2.4 // indirect
	github.com/mitchellh/go-homedir v1.1.0
	github.com/mitchellh/mapstructure v1.3.2 // indirect
	github.com/olekukonko/tablewriter v0.0.4
	github.com/pelletier/go-toml v1.8.0 // indirect
	github.com/saintfish/chardet v0.0.0-20120816061221-3af4cd4741ca // indirect
	github.com/spf13/afero v1.2.2 // indirect
	github.com/spf13/cast v1.3.1 // indirect
	github.com/spf13/cobra v1.0.0
	github.com/spf13/jwalterweatherman v1.1.0 // indirect
	github.com/spf13/pflag v1.0.5 // indirect
	github.com/spf13/viper v1.7.0
	github.com/temoto/robotstxt v1.1.1 // indirect
	golang.org/x/net v0.0.0-20200602114024-627f9648deb9 // indirect
	golang.org/x/sys v0.0.0-20200610111108-226ff32320da // indirect
	google.golang.org/appengine v1.6.6 // indirect
	google.golang.org/protobuf v1.24.0 // indirect
	gopkg.in/ini.v1 v1.57.0 // indirect
)
